…
The following example shows the same function call as above but it includes the quickView = TRUE argument. The list includes:

Data = The raw data just like in the default function but split up by metric if you have requested more than one.

Anoms = The filtered view of the data showing only those rows (by metric) where ‘anomalyDetection = TRUE’.

Viz = A line graph produced using ggplot which includes the error bar, points on the timeline where an anomay was detected, and finally the data shown in a line expanding over the period requested in the date range.

aw_anomaly_report(date_range = c(Sys.Date()-91, Sys.Date()-1),
                  metrics = c('visits','visitors'),
                  quickView = TRUE)

## [[1]]
## [[1]]$data
## # A tibble: 90 x 7
##    day        metric  data dataExpected dataUpperBound dataLowerBound
##    <date>     <chr>  <dbl>        <dbl>          <dbl>          <dbl>
##  1 2020-12-01 visits   347        215.            319.          110. 
##  2 2020-12-02 visits   432        195.            299.           90.6
##  3 2020-12-03 visits   356        262.            385.          139. 
##  4 2020-12-04 visits   252        160.            265.           55.9
##  5 2020-12-05 visits    85         89.9           194.            0  
##  6 2020-12-06 visits    99         91.1           195.            0  
##  7 2020-12-07 visits   267        230.            341.          119. 
##  8 2020-12-08 visits   314        303.            448.          157. 
##  9 2020-12-09 visits   229        257.            380.          135. 
## 10 2020-12-10 visits   255        330.            485.          175. 
## # … with 80 more rows, and 1 more variable: dataAnomalyDetected <lgl>
## 
## [[1]]$anoms
…
<img src="{{< blogdown/postref >}}index_files/figure-html/unnamed-chunk-2-1.png" width="672" />

## 
## 
## [[2]]
## [[2]]$data
## # A tibble: 90 x 7
##    day        metric    data dataExpected dataUpperBound dataLowerBound
##    <date>     <chr>    <dbl>        <dbl>          <dbl>          <dbl>
##  1 2020-12-01 visitors   312        195.            284.        107.   
##  2 2020-12-02 visitors   384        177.            265.         89.2  
##  3 2020-12-03 visitors   324        243.            356.        130.   
##  4 2020-12-04 visitors   223        153.            241.         65.1  
##  5 2020-12-05 visitors    76         88.4           176.          0.288
##  6 2020-12-06 visitors    96         88.0           176.          0    
##  7 2020-12-07 visitors   237        218.            322.        114.   
##  8 2020-12-08 visitors   274        279.            411.        147.   
##  9 2020-12-09 visitors   198        222.            326.        118.   
## 10 2020-12-10 visitors   238        275.            402.        148.   
## # … with 80 more rows, and 1 more variable: dataAnomalyDetected <lgl>
## 
## [[2]]$anoms
…
